Introduction to Data Science
…
for(i in 1:1000) { # loop over the sequence 1,2,3,...1000
  coefs <- boot_fun()
  intercepts[i] <- coefs[1] # save the output
  slopes[i] <- coefs[2] # save the output
}

# convert to tibble
all_results <- tibble(intercepts, slopes)
all_results
```

```
## # A tibble: 1,000 x 2
##    intercepts slopes
##         <dbl>  <dbl>
##  1       39.4 -0.155
##  2       41.0 -0.167
##  3       38.9 -0.145
##  4       40.5 -0.158
##  5       41.5 -0.171
##  6       39.8 -0.157
##  7       40.4 -0.162
##  8       41.3 -0.169
##  9       38.9 -0.148
## 10       39.1 -0.155
## # ... with 990 more rows
```
…
